com\nipitpon\swingproject\FriendFrame$8.class
com\nipitpon\swingproject\FriendFrame$2.class
com\nipitpon\swingproject\FriendFrame$1.class
com\nipitpon\swingproject\FriendFrame.class
com\nipitpon\swingproject\FriendFrame$7.class
com\nipitpon\swingproject\FriendFrame$3.class
com\nipitpon\swingproject\HelloMyNameFrame$1.class
com\nipitpon\swingproject\FriendFrame$6.class
com\nipitpon\swingproject\Friend.class
com\nipitpon\swingproject\FriendFrame$5.class
com\nipitpon\swingproject\HelloMyNameFrame$2.class
com\nipitpon\swingproject\SwingProject.class
com\nipitpon\swingproject\FriendFrame$4.class
com\nipitpon\swingproject\HelloMyNameFrame.class
