C:\Users\nipit\Desktop\BUU\2_2564\OOP\SwingProject\src\main\java\com\nipitpon\swingproject\SwingProject.java
C:\Users\nipit\Desktop\BUU\2_2564\OOP\SwingProject\src\main\java\com\nipitpon\swingproject\HelloMyNameFrame.java
C:\Users\nipit\Desktop\BUU\2_2564\OOP\SwingProject\src\main\java\com\nipitpon\swingproject\FriendFrame.java
C:\Users\nipit\Desktop\BUU\2_2564\OOP\SwingProject\src\main\java\com\nipitpon\swingproject\Friend.java
